9
0,0
89538852974523619762168979/114798619509779988612798555,0
89538852974523619762168979/114798619509779988612798555,532863820942474086108596141/834942787243213055590927700
0,532863820942474086108596141/834942787243213055590927700
1,0
1,1
0,1
1,532863820942474086108596141/834942787243213055590927700
89538852974523619762168979/114798619509779988612798555,1
4
4 0 1 2 3
4 1 4 7 2
4 2 7 5 8
4 2 8 6 3
-5167311492873/5753597580100,-27071488512943/65947206674550
-421782152214551085236070629674483679/3570297618434004274410828767225820300,-27071488512943/65947206674550
-421782152214551085236070629674483679/3570297618434004274410828767225820300,161409994255714792857541253851/708866426369487884196697617300
-5167311492873/5753597580100,161409994255714792857541253851/708866426369487884196697617300
-1207374214977480842814964396350640639/3570297618434004274410828767225820300,-27071488512943/65947206674550
-1207374214977480842814964396350640639/3570297618434004274410828767225820300,-4752752406680629611647911987/35443321318474394209834880865
-5167311492873/5753597580100,-4752752406680629611647911987/35443321318474394209834880865
-1207374214977480842814964396350640639/3570297618434004274410828767225820300,161409994255714792857541253851/708866426369487884196697617300
-421782152214551085236070629674483679/3570297618434004274410828767225820300,-4752752406680629611647911987/35443321318474394209834880865
