
    <!DOCTYPE HTML PUBLIC "-//IETF//DTD HTML 2.0//EN">
    <html>
        <head>
            <title>Error: 429 Too Many Requests</title>
            <style type="text/css">
              html {background-color: #eee; font-family: sans;}
              body {background-color: #fff; border: 1px solid #ddd;
                    padding: 15px; margin: 15px;}
              pre {background-color: #eee; border: 1px solid #ddd; padding: 5px;}
            </style>
        </head>
        <body>
            <h1>Error: 429 Too Many Requests</h1>
            <p>Sorry, the requested URL <tt>&#039;http://2016sv.icfpcontest.org/api/blob/a5b319099aea1f7a4118f17939300a0b466aa096&#039;</tt>
               caused an error:</p>
            <pre>Rate limit exceeded (per-second limit).</pre>
        </body>
    </html>
